{
  "project_info": {
    "project_number": "1070020217734",
    "project_id": "personalfitness-415120",
    "storage_bucket": "personalfitness-415120.appspot.com"
  },
  "client": [
    {
      "client_info": {
        "mobilesdk_app_id": "1:1070020217734:android:33669f8fd3a30bb0493a07",
        "android_client_info": {
          "package_name": "com.personal.fitness"
        }
      },
      "oauth_client": [],
      "api_key": [
        {
          "current_key": "AIzaSyCxW6a9LPsaDptDZPyFfcxb7kruaymiGAw"
        }
      ],
      "services": {
        "appinvite_service": {
          "other_platform_oauth_client": []
        }
      }
    }
  ],
  "configuration_version": "1"
}